experiments/onnuttig/ADS00019-50ms.CSV

Record Length,16384
Sample Interval,CH1:0.0000400000031 CH2:0.0000400000031
Vertical Units,CH1:V CH2:V,,
Vertical Scale,CH1:0.10 CH2:1.00,,
Vertical Offset,CH1:-0.00400 CH2:0.00,,
Horizontal Units,s,,
Horizontal Scale,0.0500000000,,
Model Number,ADS1102C,,
Serial Number,ADS00003120139,,
Software Version,3.01.01.31R21,,

Source,CH1,CH2
Second,Volt,Volt
-0.32768000000,-0.36400,3.32000
-0.32764000000,-0.36800,3.32000
-0.32760000000,-0.36800,3.32000
-0.32756000000,-0.36800,3.32000
-0.32752000000,-0.36800,3.32000
-0.32748003125,-0.36400,3.32000
-0.32744000000,-0.36400,3.32000
-0.32740000000,-0.36000,3.32000
-0.32736000000,-0.36400,3.32000
-0.32732000000,-0.36400,3.32000
-0.32728000000,-0.36800,3.32000
-0.32724000000,-0.36400,3.32000
-0.32720000000,-0.36400,3.32000
-0.32716000000,-0.37200,3.32000
-0.32712000000,-0.36800,3.32000
-0.32708000000,-0.36800,3.32000
-0.32704003125,-0.36400,3.32000
-0.32700000000,-0.36400,3.32000
-0.32696000000,-0.36800,3.32000
-0.32692000000,-0.36400,3.32000
-0.32688000000,-0.36800,3.32000
-0.32684000000,-0.36800,3.32000
-0.32680003125,-0.36400,3.32000
-0.32676000000,-0.36400,3.32000
-0.32672000000,-0.36000,3.32000
-0.32668000000,-0.36800,3.32000
-0.32664000000,-0.36800,3.32000
-0.32660000000,-0.35600,3.32000
-0.32656000000,-0.36400,3.32000
-0.32652000000,-0.36400,3.32000
-0.32648000000,-0.36400,3.32000
-0.32644000000,-0.36800,3.32000
-0.32640000000,-0.36400,3.32000
-0.32636003125,-0.36800,3.32000
-0.32632000000,-0.36800,3.32000
-0.32628000000,-0.35600,3.32000
-0.32624000000,-0.36400,3.32000
-0.32620000000,-0.36000,3.32000
-0.32616000000,-0.36400,3.32000
-0.32612003125,-0.36400,3.32000
-0.32608000000,-0.35600,3.32000
-0.32604000000,-0.36400,3.32000
-0.32600000000,-0.36000,3.32000
-0.32596000000,-0.34800,3.32000
-0.32592000000,-0.36400,3.32000
-0.32588000000,-0.36000,3.32000
-0.32584000000,-0.36000,3.32000
-0.32580000000,-0.36400,3.32000
-0.32576000000,-0.36000,3.32000
-0.32572000000,-0.36000,3.32000
-0.32568000000,-0.36400,3.32000
-0.32564000000,-0.36400,3.32000
-0.32560000000,-0.36800,3.32000
-0.32556000000,-0.36400,3.32000
-0.32552000000,-0.36000,3.32000
-0.32548000000,-0.36400,3.32000
-0.32544000000,-0.35200,3.32000
-0.32540000000,-0.36400,3.32000
-0.32536000000,-0.36400,3.32000
-0.32532000000,-0.36000,3.32000
-0.32528000000,-0.36400,3.32000
-0.32524003125,-0.36400,3.32000
-0.32520000000,-0.36400,3.32000
-0.32516000000,-0.36400,3.32000
-0.32512000000,-0.36400,3.32000
-0.32508000000,-0.36400,3.32000
-0.32504000000,-0.36400,3.32000
-0.32500000000,-0.35600,3.32000
-0.32496000000,-0.36400,3.32000
-0.32492000000,-0.36400,3.32000
-0.32488000000,-0.36000,3.32000
-0.32484000000,-0.36400,3.32000
-0.32480000000,-0.36400,3.32000
-0.32476000000,-0.38000,3.32000
-0.32472000000,-0.36800,3.32000
-0.32468000000,-0.36000,3.32000
-0.32464000000,-0.36400,3.32000
-0.32460000000,-0.36400,3.32000
-0.32456000000,-0.35600,3.32000
-0.32452000000,-0.36000,3.32000
-0.32448000000,-0.35600,3.32000
-0.32444000000,-0.36400,3.32000
-0.32440000000,-0.36400,3.32000
-0.32436000000,-0.36400,3.32000
-0.32432000000,-0.36400,3.32000
-0.32428000000,-0.36400,3.32000
-0.32424000000,-0.35600,3.32000
-0.32420000000,-0.36000,3.32000
-0.32416000000,-0.36000,3.32000
-0.32412000000,-0.36400,3.32000
-0.32408000000,-0.36000,3.32000
-0.32404000000,-0.36400,3.32000
-0.32400000000,-0.36000,3.32000
-0.32396003125,-0.36400,3.32000
-0.32392003125,-0.36800,3.32000
-0.32388003125,-0.36400,3.32000
-0.32384003125,-0.36800,3.32000
-0.32380003125,-0.36400,3.32000
-0.32376003125,-0.38000,3.32000
-0.32372003125,-0.36000,3.32000
-0.32368000000,-0.36400,3.32000
-0.32364003125,-0.36800,3.32000
-0.32360003125,-0.36800,3.32000
-0.32356003125,-0.36400,3.32000
-0.32352003125,-0.36400,3.32000
-0.32348003125,-0.36000,3.32000
-0.32344000000,-0.36800,3.32000
-0.32340003125,-0.35600,3.32000
-0.32336003125,-0.36800,3.32000
-0.32332003125,-0.36800,3.32000
-0.32328003125,-0.36400,3.32000
-0.32324003125,-0.36800,3.32000
-0.32320003125,-0.36400,3.32000
-0.32316003125,-0.36400,3.32000
-0.32312003125,-0.36400,3.32000
-0.32308003125,-0.36400,3.32000
-0.32304003125,-0.36400,3.32000
-0.32300000000,-0.36800,3.32000
-0.32296003125,-0.36800,3.32000
-0.32292003125,-0.37200,3.32000
-0.32288003125,-0.36400,3.32000
-0.32284003125,-0.36400,3.32000
-0.32280003125,-0.36400,3.32000
-0.32276003125,-0.36000,3.32000
-0.32272003125,-0.36400,3.32000
-0.32268003125,-0.36400,3.32000
-0.32264003125,-0.36800,3.32000
-0.32260003125,-0.36400,3.32000
-0.32256000000,-0.36400,3.32000
-0.32252003125,-0.36400,3.32000
-0.32248003125,-0.36800,3.32000
-0.32244003125,-0.36800,3.32000
-0.32240003125,-0.36800,3.32000
-0.32236003125,-0.36400,3.32000
-0.32232000000,-0.36400,3.32000
-0.32228003125,-0.36800,3.32000
-0.32224003125,-0.36000,3.32000
-0.32220003125,-0.36400,3.32000
-0.32216003125,-0.36400,3.32000
-0.32212003125,-0.36400,3.32000
-0.32208003125,-0.36400,3.32000
-0.32204003125,-0.36400,3.32000
-0.32200003125,-0.36400,3.32000
-0.32196003125,-0.36800,3.32000
-0.32192003125,-0.36800,3.32000
-0.32188000000,-0.36400,3.32000
-0.32184003125,-0.36400,3.32000
-0.32180003125,-0.35600,3.32000
-0.32176003125,-0.36400,3.32000
-0.32172003125,-0.36400,3.32000
-0.32168000000,-0.36400,3.32000
-0.32164000000,-0.36800,3.32000
-0.32160003125,-0.36400,3.32000
-0.32156003125,-0.36800,3.32000
-0.32152003125,-0.36400,3.32000
-0.32148003125,-0.36400,3.32000
-0.32144000000,-0.36400,3.32000
-0.32140003125,-0.36800,3.32000
-0.32136003125,-0.36800,3.32000
-0.32132003125,-0.37200,3.32000
-0.32128003125,-0.36400,3.28000
-0.32124000000,-0.36000,3.32000
-0.32120000000,-0.37200,3.32000
-0.32116003125,-0.36000,3.32000
-0.32112003125,-0.36400,3.32000
-0.32108003125,-0.36400,3.32000
-0.32104003125,-0.36800,3.32000
-0.32100000000,-0.36800,3.32000
-0.32096000000,-0.36400,3.32000
-0.32092003125,-0.36800,3.32000
-0.32088003125,-0.36400,3.32000
-0.32084003125,-0.36400,3.32000
-0.32080003125,-0.36800,3.32000
-0.32076000000,-0.36800,3.32000
-0.32072003125,-0.36800,3.32000
-0.32068003125,-0.36400,3.32000
-0.32064003125,-0.36800,3.32000
-0.32060003125,-0.36400,3.32000
-0.32056000000,-0.36400,3.32000
-0.32052000000,-0.36400,3.32000
-0.32048003125,-0.36400,3.32000
-0.32044003125,-0.36400,3.32000
-0.32040003125,-0.36800,3.32000
-0.32036003125,-0.36800,3.32000
-0.32032000000,-0.36400,3.32000
-0.32028000000,-0.36800,3.28000
-0.32024003125,-0.36800,3.32000
-0.32020003125,-0.36800,3.32000
-0.32016003125,-0.36800,3.32000
-0.32012003125,-0.36400,3.32000
-0.32008000000,-0.36000,3.32000
-0.32004003125,-0.36400,3.32000
-0.32000003125,-0.36400,3.32000
-0.31996003125,-0.36400,3.32000
-0.31992003125,-0.36400,3.32000
-0.31988000000,-0.36400,3.32000
-0.31984000000,-0.36400,3.32000
-0.31980003125,-0.36800,3.32000
-0.31976003125,-0.36800,3.32000
-0.31972003125,-0.36400,3.32000
-0.31968000000,-0.36800,3.32000
-0.31964000000,-0.36400,3.32000
-0.31960003125,-0.36800,3.32000
-0.31956003125,-0.36000,3.32000
-0.31952003125,-0.36800,3.32000
-0.31948003125,-0.36400,3.32000
-0.31944000000,-0.36400,3.32000
-0.31940000000,-0.36800,3.32000
-0.31936003125,-0.36800,3.32000
-0.31932003125,-0.36800,3.32000
-0.31928003125,-0.36800,3.32000
-0.31924003125,-0.36400,3.32000
-0.31920000000,-0.36400,3.32000
-0.31916000000,-0.36800,3.32000
-0.31912003125,-0.36800,3.32000
-0.31908003125,-0.36800,3.32000
-0.31904003125,-0.36400,3.32000
-0.31900000000,-0.36800,3.32000
-0.31896000000,-0.35600,3.32000
-0.31892003125,-0.36800,3.32000
-0.31888003125,-0.36800,3.32000
-0.31884003125,-0.36800,3.32000
-0.31880003125,-0.36800,3.32000
-0.31876000000,-0.36800,3.32000
-0.31872000000,-0.36400,3.32000
-0.31868003125,-0.36400,3.32000
-0.31864003125,-0.36400,3.32000
-0.31860003125,-0.36400,3.32000
-0.31856000000,-0.36400,3.32000
-0.31852000000,-0.36400,3.32000
-0.31848000000,-0.36400,3.32000
-0.31844003125,-0.36800,3.32000
-0.31840003125,-0.36800,3.32000
-0.31836003125,-0.36400,3.32000
-0.31832000000,-0.36000,3.32000
-0.31828000000,-0.36800,3.32000
-0.31824003125,-0.36400,3.32000
-0.31820003125,-0.36800,3.32000
-0.31816003125,-0.36400,3.32000
-0.31812003125,-0.36800,3.32000
-0.31808000000,-0.36800,3.32000
-0.31804000000,-0.36400,3.32000
-0.31800003125,-0.36800,3.32000
-0.31796003125,-0.36000,3.32000
-0.31792003125,-0.36400,3.32000
-0.31788000000,-0.36400,3.32000
-0.31784000000,-0.36800,3.32000
-0.31780000000,-0.36400,3.32000
-0.31776003125,-0.36400,3.32000
-0.31772003125,-0.36800,3.32000
-0.31768000000,-0.36400,3.32000
-0.31764000000,-0.36400,3.32000
-0.31760000000,-0.36400,3.32000
-0.31756003125,-0.36400,3.32000
-0.31752003125,-0.36400,3.32000
-0.31748003125,-0.36800,3.32000
-0.31744000000,-0.36400,3.32000
-0.31740000000,-0.36800,3.32000
-0.31736000000,-0.36000,3.32000
-0.31732003125,-0.36000,3.32000
-0.31728003125,-0.36400,3.32000
-0.31724000000,-0.36400,3.32000
-0.31720000000,-0.36400,3.32000
-0.31716000000,-0.36400,3.32000
-0.31712000000,-0.36400,3.32000
-0.31708003125,-0.36400,3.32000
-0.31704003125,-0.36800,3.32000
-0.31700000000,-0.36800,3.32000
-0.31696000000,-0.36800,3.32000
-0.31692000000,-0.36400,3.32000
-0.31688003125,-0.36400,3.32000
-0.31684003125,-0.36800,3.32000
-0.31680003125,-0.35600,3.32000
-0.31676000000,-0.37200,3.32000
-0.31672000000,-0.36400,3.32000
-0.31668000000,-0.36800,3.32000
-0.31664003125,-0.36800,3.32000
-0.31660003125,-0.36800,3.32000
-0.31656000000,-0.36800,3.32000
-0.31652000000,-0.36400,3.32000
-0.31648000000,-0.36800,3.32000
-0.31644003125,-0.36400,3.32000
-0.31640003125,-0.36800,3.32000
-0.31636003125,-0.36400,3.28000
-0.31632000000,-0.36800,3.32000
-0.31628000000,-0.36400,3.32000
-0.31624000000,-0.36800,3.32000
-0.31620003125,-0.36400,3.32000
-0.31616003125,-0.36400,3.32000
-0.31612003125,-0.36400,3.32000
-0.31608000000,-0.36800,3.32000
-0.31604000000,-0.36400,3.32000
-0.31600000000,-0.36800,3.32000
-0.31596003125,-0.37200,3.32000
-0.31592003125,-0.37200,3.32000
-0.31588000000,-0.37200,3.32000
-0.31584000000,-0.36800,3.32000
-0.31580000000,-0.36800,3.32000
-0.31576003125,-0.36800,3.32000
-0.31572003125,-0.36400,3.32000
-0.31568000000,-0.36800,3.32000
-0.31564000000,-0.36800,3.32000
-0.31560000000,-0.36400,3.32000
-0.31556000000,-0.37200,3.32000
-0.31552003125,-0.36800,3.32000
-0.31548003125,-0.36800,3.32000
-0.31544000000,-0.36800,3.32000
-0.31540000000,-0.36400,3.32000
-0.31536000000,-0.36800,3.32000
-0.31532000000,-0.36800,3.32000
-0.31528003125,-0.36800,3.32000
-0.31524003125,-0.36800,3.32000
-0.31520000000,-0.38000,3.32000
-0.31516000000,-0.36800,3.32000
-0.31512000000,-0.36800,3.32000
-0.31508003125,-0.36800,3.32000
-0.31504003125,-0.36800,3.32000
-0.31500000000,-0.36800,3.32000
-0.31496000000,-0.36800,3.32000
-0.31492000000,-0.36400,3.32000
-0.31488000000,-0.36800,3.32000
-0.31484003125,-0.36800,3.32000
-0.31480003125,-0.36800,3.32000
-0.31476000000,-0.36400,3.32000
-0.31472000000,-0.36800,3.32000
-0.31468000000,-0.36800,3.32000
-0.31464000000,-0.36800,3.32000
-0.31460003125,-0.36400,3.32000
-0.31456000000,-0.36800,3.32000
-0.31452000000,-0.36800,3.32000
-0.31448000000,-0.36800,3.32000
-0.31444000000,-0.36800,3.32000
-0.31440003125,-0.36400,3.32000
-0.31436003125,-0.36400,3.32000
-0.31432000000,-0.36800,3.32000
-0.31428000000,-0.36400,3.32000
-0.31424000000,-0.36800,3.32000
-0.31420000000,-0.36800,3.32000
-0.31416003125,-0.36800,3.32000
-0.31412003125,-0.37200,3.32000
-0.31408000000,-0.36800,3.32000
-0.31404000000,-0.36800,3.32000
-0.31400000000,-0.36400,3.32000
-0.31396003125,-0.36800,3.32000
-0.31392003125,-0.36800,3.32000
-0.31388000000,-0.36800,3.32000
-0.31384000000,-0.37200,3.32000
-0.31380000000,-0.36400,3.32000
-0.31376000000,-0.36800,3.32000
-0.31372003125,-0.36800,3.32000
-0.31368000000,-0.36800,3.32000
-0.31364000000,-0.37200,3.32000
-0.31360000000,-0.36800,3.32000
-0.31356000000,-0.36800,3.32000
-0.31352000000,-0.36800,3.32000
-0.31348003125,-0.38000,3.32000
-0.31344000000,-0.36800,3.32000
-0.31340000000,-0.36400,3.32000
-0.31336000000,-0.38400,3.32000
-0.31332000000,-0.36400,3.32000
-0.31328003125,-0.36800,3.32000
-0.31324000000,-0.36800,3.32000
-0.31320000000,-0.36800,3.32000
-0.31316000000,-0.36400,3.32000
-0.31312000000,-0.36800,3.32000
-0.31308000000,-0.36800,3.32000
-0.31304003125,-0.36800,3.32000
-0.31300000000,-0.36800,3.32000
-0.31296000000,-0.36800,3.32000
-0.31292000000,-0.36400,3.32000
-0.31288000000,-0.36800,3.32000
-0.31284000000,-0.36800,3.32000
-0.31280003125,-0.36800,3.32000
-0.31276000000,-0.36800,3.32000
-0.31272000000,-0.36400,3.32000
-0.31268000000,-0.36800,3.32000
-0.31264000000,-0.36800,3.32000
-0.31260003125,-0.36800,3.32000
-0.31256000000,-0.36400,3.32000
-0.31252000000,-0.36400,3.32000
-0.31248000000,-0.36800,3.32000
-0.31244000000,-0.36400,3.32000
-0.31240000000,-0.36800,3.32000
-0.31236003125,-0.36800,3.32000
-0.31232000000,-0.36800,3.32000
-0.31228000000,-0.36800,3.32000
-0.31224000000,-0.36800,3.32000
-0.31220000000,-0.36800,3.32000
-0.31216000000,-0.36800,3.32000
-0.31212003125,-0.36800,3.32000
-0.31208000000,-0.36800,3.32000
-0.31204000000,-0.36800,3.32000
-0.31200000000,-0.36400,3.32000
-0.31196000000,-0.36400,3.32000
-0.31192003125,-0.36800,3.32000
-0.31188000000,-0.36400,3.32000
-0.31184000000,-0.36400,3.32000
-0.31180000000,-0.36400,3.32000
-0.31176000000,-0.36400,3.32000
-0.31172000000,-0.36800,3.32000
-0.31168000000,-0.37200,3.32000
-0.31164000000,-0.36800,3.32000
-0.31160000000,-0.36800,3.32000
-0.31156000000,-0.35200,3.32000
-0.31152000000,-0.36800,3.32000
-0.31148000000,-0.37200,3.32000
-0.31144000000,-0.36400,3.32000
-0.31140000000,-0.36800,3.32000
-0.31136000000,-0.36800,3.32000
-0.31132000000,-0.36800,3.32000
-0.31128000000,-0.36800,3.32000
-0.31124003125,-0.36400,3.32000
-0.31120000000,-0.36800,3.32000
-0.31116000000,-0.36800,3.32000
-0.31112000000,-0.36800,3.32000
-0.31108000000,-0.36800,3.32000
-0.31104000000,-0.36400,3.32000
-0.31100000000,-0.36800,3.32000
-0.31096000000,-0.36400,3.32000
-0.31092000000,-0.36800,3.32000
-0.31088000000,-0.36400,3.32000
-0.31084000000,-0.36400,3.32000
-0.31080003125,-0.36400,3.32000
-0.31076000000,-0.36800,3.36000
-0.31072000000,-0.37200,3.32000
-0.31068000000,-0.36800,3.32000
-0.31064000000,-0.36800,3.32000
-0.31060000000,-0.36800,3.32000
-0.31056000000,-0.36400,3.32000
-0.31052000000,-0.36800,3.32000
-0.31048000000,-0.36400,3.32000
-0.31044000000,-0.36800,3.32000
-0.31040000000,-0.36800,3.32000
-0.31036000000,-0.36400,3.32000
-0.31032000000,-0.36800,3.32000
-0.31028000000,-0.36400,3.32000
-0.31024000000,-0.36800,3.32000
-0.31020000000,-0.36800,3.32000
-0.31016000000,-0.36800,3.32000
-0.31012003125,-0.37200,3.32000
-0.31008000000,-0.35600,3.32000
-0.31004000000,-0.36400,3.32000
-0.31000000000,-0.36400,3.32000
-0.30996003125,-0.36000,3.32000
-0.30992003125,-0.36400,3.32000
-0.30988003125,-0.36400,3.32000
-0.30984003125,-0.36400,3.32000
-0.30980003125,-0.36400,3.32000
-0.30976003125,-0.36400,3.32000
-0.30972003125,-0.36800,3.32000
-0.30968000000,-0.36800,3.32000
-0.30964003125,-0.36400,3.32000
-0.30960003125,-0.36800,3.32000
-0.30956003125,-0.36400,3.32000
-0.30952003125,-0.36800,3.32000
-0.30948003125,-0.36400,3.32000
-0.30944003125,-0.36800,3.32000
-0.30940003125,-0.36800,3.32000
-0.30936003125,-0.36800,3.32000
-0.30932003125,-0.36800,3.32000
-0.30928003125,-0.36800,3.32000
-0.30924003125,-0.36000,3.32000
-0.30920003125,-0.36400,3.32000
-0.30916003125,-0.36800,3.32000
-0.30912003125,-0.36800,3.32000
-0.30908003125,-0.36400,3.32000
-0.30904003125,-0.36400,3.32000
-0.30900000000,-0.36400,3.32000
-0.30896003125,-0.36000,3.32000
-0.30892003125,-0.36800,3.32000
-0.30888003125,-0.36400,3.32000
-0.30884003125,-0.36800,3.32000
-0.30880003125,-0.36800,3.32000
-0.30876003125,-0.36400,3.32000
-0.30872003125,-0.36800,3.32000
-0.30868003125,-0.36400,3.32000
-0.30864003125,-0.36400,3.32000
-0.30860003125,-0.36800,3.32000
-0.30856000000,-0.36800,3.32000
-0.30852003125,-0.36400,3.32000
-0.30848003125,-0.37200,3.32000
-0.30844003125,-0.36400,3.32000
-0.30840003125,-0.36800,3.28000
-0.30836003125,-0.36400,3.32000
-0.30832003125,-0.36800,3.32000
-0.30828003125,-0.36400,3.32000
-0.30824003125,-0.36400,3.32000
-0.30820003125,-0.36800,3.32000
-0.30816003125,-0.36800,3.32000
-0.30812003125,-0.36400,3.32000
-0.30808003125,-0.36400,3.32000
-0.30804003125,-0.35600,3.32000
-0.30800003125,-0.36800,3.32000
-0.30796003125,-0.36400,3.32000
-0.30792003125,-0.36800,3.32000
-0.30788000000,-0.36800,3.32000
-0.30784003125,-0.36400,3.32000
-0.30780003125,-0.36400,3.32000
-0.30776003125,-0.36800,3.32000
-0.30772003125,-0.36800,3.32000
-0.30768000000,-0.36800,3.32000
-0.30764003125,-0.36800,3.32000
-0.30760003125,-0.36800,3.32000
-0.30756003125,-0.36400,3.32000
-0.30752003125,-0.36800,3.32000
-0.30748003125,-0.36400,3.32000
-0.30744000000,-0.36800,3.32000
-0.30740003125,-0.36000,3.32000
-0.30736003125,-0.36400,3.32000
-0.30732003125,-0.36000,3.32000
-0.30728003125,-0.36800,3.32000
-0.30724000000,-0.36400,3.32000
-0.30720000000,-0.36800,3.36000
-0.30716003125,-0.36000,3.32000
-0.30712003125,-0.36400,3.32000
-0.30708003125,-0.36400,3.32000
-0.30704003125,-0.36800,3.32000
-0.30700000000,-0.36800,3.32000
-0.30696003125,-0.36800,3.32000
-0.30692003125,-0.36800,3.32000
-0.30688003125,-0.36000,3.32000
-0.30684003125,-0.36400,3.32000
-0.30680003125,-0.36400,3.32000
-0.30676000000,-0.36800,3.32000
-0.30672003125,-0.36400,3.32000
-0.30668003125,-0.36400,3.32000
-0.30664003125,-0.36400,3.32000
-0.30660003125,-0.36400,3.32000
-0.30656000000,-0.36400,3.32000
-0.30652000000,-0.36400,3.32000
-0.30648003125,-0.36800,3.32000
-0.30644003125,-0.36400,3.32000
-0.30640003125,-0.36800,3.32000
-0.30636003125,-0.36800,3.32000
-0.30632000000,-0.36800,3.32000
-0.30628003125,-0.36800,3.32000
-0.30624003125,-0.36400,3.32000
-0.30620003125,-0.36400,3.32000
-0.30616003125,-0.36000,3.32000
-0.30612003125,-0.36400,3.32000
-0.30608000000,-0.36000,3.32000
-0.30604003125,-0.36400,3.32000
-0.30600003125,-0.35600,3.32000
-0.30596003125,-0.36000,3.32000
-0.30592003125,-0.35600,3.32000
-0.30588000000,-0.35600,3.32000
-0.30584000000,-0.35600,3.32000
-0.30580003125,-0.36400,3.36000
-0.30576003125,-0.36800,3.32000
-0.30572003125,-0.35600,3.32000
-0.30568000000,-0.36400,3.32000
-0.30564000000,-0.35600,3.32000
-0.30560003125,-0.36400,3.32000
-0.30556003125,-0.36000,3.32000
-0.30552003125,-0.36400,3.32000
-0.30548003125,-0.36000,3.32000
-0.30544000000,-0.36400,3.32000
-0.30540000000,-0.36400,3.32000
-0.30536003125,-0.35600,3.32000
-0.30532003125,-0.35600,3.32000
-0.30528003125,-0.36400,3.32000
-0.30524003125,-0.36000,3.32000
-0.30520000000,-0.36800,3.32000
-0.30516003125,-0.36400,3.32000
-0.30512003125,-0.36400,3.32000
-0.30508003125,-0.36000,3.32000
-0.30504003125,-0.36400,3.32000
-0.30500000000,-0.36800,3.32000
-0.30496000000,-0.36800,3.32000
-0.30492003125,-0.36000,3.32000
-0.30488003125,-0.36400,3.32000
-0.30484003125,-0.36000,3.32000
-0.30480003125,-0.36000,3.32000
-0.30476000000,-0.36000,3.32000
-0.30472000000,-0.36400,3.32000
-0.30468003125,-0.37200,3.32000
-0.30464003125,-0.35600,3.32000
-0.30460003125,-0.36400,3.32000
-0.30456000000,-0.36000,3.32000
-0.30452000000,-0.36400,3.32000
-0.30448003125,-0.36400,3.32000
-0.30444003125,-0.36400,3.32000
-0.30440003125,-0.36000,3.32000
-0.30436003125,-0.36000,3.32000
-0.30432000000,-0.36400,3.32000
-0.30428000000,-0.36400,3.32000
-0.30424003125,-0.36400,3.32000
-0.30420003125,-0.36400,3.32000
-0.30416003125,-0.36400,3.32000
-0.30412003125,-0.35600,3.32000
-0.30408000000,-0.36400,3.32000
-0.30404000000,-0.36400,3.32000
-0.30400003125,-0.36800,3.32000
-0.30396003125,-0.36800,3.32000
-0.30392003125,-0.36800,3.32000
-0.30388000000,-0.35600,3.32000
-0.30384000000,-0.36400,3.32000
-0.30380003125,-0.36400,3.32000
-0.30376003125,-0.36400,3.32000
-0.30372003125,-0.36400,3.32000
-0.30368000000,-0.36400,3.32000
-0.30364000000,-0.36800,3.32000
-0.30360000000,-0.36400,3.32000
-0.30356003125,-0.36800,3.32000
-0.30352003125,-0.36400,3.32000
-0.30348003125,-0.36800,3.32000
-0.30344000000,-0.36400,3.32000
-0.30340000000,-0.36800,3.32000
-0.30336000000,-0.36400,3.32000
-0.30332003125,-0.36400,3.32000
-0.30328003125,-0.36400,3.32000
-0.30324000000,-0.36000,3.32000
-0.30320000000,-0.36400,3.32000
