experiments/antenna/antenna_off_idle-1s.csv

Record Length,16384
Sample Interval,CH1:0.0008000000000 CH2:0.0008000000000
Vertical Units,CH1:V CH2:V,,
Vertical Scale,CH1:0.10 CH2:1.00,,
Vertical Offset,CH1:-0.00400 CH2:0.00,,
Horizontal Units,s,,
Horizontal Scale,1.0000000000,,
Model Number,ADS1102C,,
Serial Number,ADS00003120139,,
Software Version,3.01.01.31R21,,

Source,CH1,CH2
Second,Volt,Volt
-6.55360000000,-0.23600,0.00
-6.55280000000,-0.24400,0.00
-6.55200000000,-0.23600,0.00
-6.55120000000,-0.24000,0.00
-6.55040000000,-0.23600,0.00
-6.54960000000,-0.24400,0.00
-6.54880000000,-0.24400,-0.04000
-6.54800000000,-0.24400,-0.04000
-6.54720000000,-0.23600,0.00
-6.54640000000,-0.24000,0.00
-6.54560000000,-0.24000,0.00
-6.54480000000,-0.23600,0.00
-6.54400000000,-0.23600,0.00
-6.54320000000,-0.24400,0.00
-6.54240000000,-0.23600,0.00
-6.54160000000,-0.23600,0.00
-6.54080000000,-0.24000,0.00
-6.54000000000,-0.23600,0.00
-6.53920000000,-0.23600,0.00
-6.53840000000,-0.23600,0.00
-6.53760000000,-0.23600,0.00
-6.53680000000,-0.24000,0.00
-6.53600000000,-0.24800,0.00
-6.53520000000,-0.24400,0.00
-6.53440000000,-0.23600,-0.04000
-6.53360000000,-0.24000,0.00
-6.53280000000,-0.23600,0.00
-6.53200000000,-0.24000,-0.04000
-6.53120000000,-0.24800,0.00
-6.53040000000,-0.24000,0.00
-6.52960000000,-0.24800,0.00
-6.52880000000,-0.24400,0.00
-6.52800000000,-0.24000,0.00
-6.52719950000,-0.24400,-0.04000
-6.52640000000,-0.24000,0.00
-6.52560000000,-0.24000,-0.04000
-6.52480000000,-0.24000,0.00
-6.52400000000,-0.24000,0.00
-6.52320000000,-0.24400,0.00
-6.52240000000,-0.23600,0.00
-6.52160000000,-0.24000,0.00
-6.52080000000,-0.23600,0.00
-6.52000000000,-0.24400,0.00
-6.51920000000,-0.24000,0.00
-6.51840000000,-0.24000,-0.04000
-6.51760000000,-0.24000,0.00
-6.51680000000,-0.24000,0.00
-6.51600000000,-0.24000,0.00
-6.51520000000,-0.24000,0.00
-6.51440000000,-0.24000,0.00
-6.51360000000,-0.24000,0.00
-6.51280000000,-0.24000,0.00
-6.51200000000,-0.23600,0.00
-6.51120000000,-0.24400,0.00
-6.51040000000,-0.24400,0.00
-6.50960000000,-0.24000,0.00
-6.50880000000,-0.24400,0.00
-6.50800000000,-0.24000,0.00
-6.50720000000,-0.24000,0.00
-6.50640000000,-0.24400,0.00
-6.50560000000,-0.23600,0.00
-6.50480000000,-0.24000,0.00
-6.50400000000,-0.24000,0.00
-6.50320000000,-0.24000,0.00
-6.50240000000,-0.23600,0.00
-6.50160000000,-0.23600,0.00
-6.50080000000,-0.24800,0.00
-6.50000000000,-0.23600,0.00
-6.49920000000,-0.23600,0.00
-6.49840000000,-0.24000,0.00
-6.49760000000,-0.24000,0.00
-6.49680000000,-0.23600,0.00
-6.49600000000,-0.23600,-0.04000
-6.49520000000,-0.24000,0.00
-6.49440000000,-0.23600,0.00
-6.49360000000,-0.24000,0.00
-6.49280000000,-0.24000,0.00
-6.49200000000,-0.24000,0.00
-6.49120000000,-0.24000,0.00
-6.49040000000,-0.23600,0.00
-6.48960000000,-0.24400,0.00
-6.48880000000,-0.24000,0.00
-6.48800000000,-0.24000,0.00
-6.48720000000,-0.24400,0.00
-6.48640000000,-0.24400,0.00
-6.48560000000,-0.24400,0.00
-6.48480000000,-0.24000,0.00
-6.48400000000,-0.23600,0.00
-6.48320000000,-0.23600,0.00
-6.48240000000,-0.24000,0.00
-6.48160000000,-0.23600,0.00
-6.48080000000,-0.24000,0.00
-6.48000000000,-0.24000,-0.04000
-6.47920000000,-0.24000,0.00
-6.47840000000,-0.23600,0.00
-6.47760000000,-0.24000,0.00
-6.47680000000,-0.24000,0.00
-6.47600000000,-0.23600,0.00
-6.47520000000,-0.24400,0.00
-6.47440000000,-0.24800,0.00
-6.47360000000,-0.23600,0.00
-6.47280050000,-0.23600,0.00
-6.47200000000,-0.24000,0.00
-6.47120000000,-0.24000,0.00
-6.47040000000,-0.24000,0.00
-6.46960000000,-0.24400,-0.04000
-6.46880000000,-0.24000,0.00
-6.46800000000,-0.23600,0.00
-6.46720050000,-0.24800,-0.04000
-6.46640000000,-0.23600,0.00
-6.46560000000,-0.24000,0.00
-6.46480000000,-0.24000,0.00
-6.46400000000,-0.24000,0.00
-6.46320000000,-0.24000,0.00
-6.46240000000,-0.24000,0.00
-6.46160000000,-0.24000,0.00
-6.46080000000,-0.24000,0.00
-6.46000000000,-0.24000,0.00
-6.45920000000,-0.23600,0.00
-6.45840000000,-0.24400,0.00
-6.45760000000,-0.23600,0.00
-6.45680000000,-0.23600,0.00
-6.45600000000,-0.23200,-0.04000
-6.45520000000,-0.24000,0.00
-6.45440000000,-0.24000,0.00
-6.45360000000,-0.24400,0.00
-6.45280050000,-0.24800,0.00
-6.45200000000,-0.24000,0.00
-6.45120000000,-0.24400,0.00
-6.45040000000,-0.24800,-0.04000
-6.44960000000,-0.24800,0.00
-6.44880000000,-0.24000,0.00
-6.44800000000,-0.24000,0.00
-6.44720000000,-0.24400,0.00
-6.44640000000,-0.23600,0.00
-6.44560000000,-0.23600,0.00
-6.44480000000,-0.24400,0.00
-6.44400000000,-0.23600,0.00
-6.44320000000,-0.24000,0.00
-6.44240000000,-0.24000,0.00
-6.44160000000,-0.24000,0.00
-6.44080000000,-0.23600,0.00
-6.44000000000,-0.23600,0.00
-6.43920000000,-0.24400,0.00
-6.43840050000,-0.24000,0.00
-6.43760000000,-0.24000,0.00
-6.43680000000,-0.24000,0.00
-6.43600000000,-0.24400,0.00
-6.43520000000,-0.24000,0.00
-6.43440000000,-0.23600,0.00
-6.43360000000,-0.24000,0.00
-6.43280050000,-0.24000,0.00
-6.43200000000,-0.24000,0.00
-6.43120000000,-0.24800,0.00
-6.43040000000,-0.24400,0.00
-6.42960000000,-0.24400,0.00
-6.42880000000,-0.24400,0.00
-6.42800000000,-0.24400,0.00
-6.42720050000,-0.24400,0.00
-6.42640000000,-0.24800,-0.04000
-6.42560000000,-0.24400,0.00
-6.42480000000,-0.24000,0.00
-6.42400050000,-0.24000,0.00
-6.42320000000,-0.24000,0.00
-6.42240000000,-0.23600,0.00
-6.42160000000,-0.23600,0.00
-6.42080000000,-0.23200,0.00
-6.42000000000,-0.24000,0.00
-6.41920000000,-0.23600,0.00
-6.41840050000,-0.24000,0.00
-6.41760000000,-0.24400,0.00
-6.41680000000,-0.23600,0.00
-6.41600000000,-0.23600,0.00
-6.41520000000,-0.24000,0.00
-6.41440000000,-0.23600,0.00
-6.41360000000,-0.24000,0.00
-6.41280050000,-0.24000,0.00
-6.41200000000,-0.24000,0.00
-6.41120000000,-0.24400,0.00
-6.41040000000,-0.24000,0.04000
-6.40960050000,-0.24400,-0.04000
-6.40880000000,-0.23600,0.00
-6.40800000000,-0.23600,0.00
-6.40720000000,-0.23600,0.00
-6.40640000000,-0.24000,0.00
-6.40560000000,-0.24000,0.00
-6.40480000000,-0.24000,0.00
-6.40400050000,-0.24000,0.00
-6.40320000000,-0.24000,0.00
-6.40240000000,-0.23600,0.00
-6.40160000000,-0.24000,0.00
-6.40080000000,-0.23600,0.00
-6.40000000000,-0.24000,0.00
-6.39919950000,-0.24800,0.00
-6.39840000000,-0.24000,0.00
-6.39759950000,-0.24800,0.04000
-6.39679950000,-0.24000,0.00
-6.39599950000,-0.23600,0.00
-6.39520000000,-0.24000,0.00
-6.39439950000,-0.24000,0.00
-6.39359950000,-0.24400,0.00
-6.39280000000,-0.23600,0.00
-6.39199950000,-0.24400,0.00
-6.39119950000,-0.24000,0.00
-6.39039950000,-0.24000,0.00
-6.38960000000,-0.24400,0.00
-6.38879950000,-0.24400,0.00
-6.38799950000,-0.24400,0.00
-6.38720000000,-0.24000,0.00
-6.38639950000,-0.24400,0.00
-6.38559950000,-0.24000,0.00
-6.38479950000,-0.24000,0.00
-6.38400000000,-0.24000,0.00
-6.38319950000,-0.23600,0.00
-6.38239950000,-0.24000,0.00
-6.38159950000,-0.23600,0.00
-6.38080000000,-0.23600,0.00
-6.37999950000,-0.23600,0.00
-6.37919950000,-0.24000,0.00
-6.37840000000,-0.24000,0.00
-6.37759950000,-0.24000,0.00
-6.37679950000,-0.24400,0.00
-6.37599950000,-0.24000,0.00
-6.37520000000,-0.24400,0.00
-6.37439950000,-0.24400,0.00
-6.37359950000,-0.25200,0.00
-6.37280000000,-0.24000,-0.04000
-6.37199950000,-0.23600,0.00
-6.37119950000,-0.24800,-0.04000
-6.37039950000,-0.23600,0.00
-6.36960000000,-0.24400,0.00
-6.36879950000,-0.24400,0.00
-6.36799950000,-0.24000,0.00
-6.36719950000,-0.24000,0.00
-6.36640000000,-0.24000,0.00
-6.36559950000,-0.24000,0.00
-6.36479950000,-0.23600,0.00
-6.36400000000,-0.24000,0.00
-6.36319950000,-0.23600,0.00
-6.36239950000,-0.24800,0.00
-6.36159950000,-0.24400,0.00
-6.36080000000,-0.23200,0.00
-6.35999950000,-0.23600,0.00
-6.35919950000,-0.24000,0.00
-6.35840000000,-0.23600,0.00
-6.35759950000,-0.23600,0.00
-6.35679950000,-0.24000,0.00
-6.35599950000,-0.24000,0.04000
-6.35520000000,-0.24400,0.00
-6.35439950000,-0.23600,-0.04000
-6.35359950000,-0.24000,0.00
-6.35280000000,-0.23600,0.00
-6.35200000000,-0.23600,0.00
-6.35119950000,-0.24800,-0.04000
-6.35039950000,-0.24400,0.00
-6.34960000000,-0.25200,0.00
-6.34879950000,-0.24000,0.00
-6.34799950000,-0.24400,0.00
-6.34720000000,-0.23600,-0.04000
-6.34640000000,-0.23600,0.00
-6.34559950000,-0.24000,0.00
-6.34479950000,-0.24000,0.00
-6.34400000000,-0.24000,0.00
-6.34319950000,-0.23600,0.00
-6.34239950000,-0.23600,0.00
-6.34159950000,-0.24000,0.00
-6.34080000000,-0.24000,0.00
-6.33999950000,-0.23600,0.00
-6.33919950000,-0.24000,0.00
-6.33840000000,-0.24400,0.00
-6.33760000000,-0.24400,0.00
-6.33679950000,-0.23600,0.00
-6.33599950000,-0.23600,0.00
-6.33520000000,-0.24000,0.00
-6.33439950000,-0.24000,0.00
-6.33359950000,-0.23600,0.00
-6.33280000000,-0.24000,0.00
-6.33200000000,-0.24000,0.00
-6.33119950000,-0.24400,0.00
-6.33039950000,-0.24000,0.00
-6.32960000000,-0.24000,-0.04000
-6.32879950000,-0.24800,0.00
-6.32799950000,-0.24000,-0.04000
-6.32719950000,-0.24000,0.00
-6.32640000000,-0.24000,0.00
-6.32559950000,-0.24000,0.00
-6.32479950000,-0.24000,0.00
-6.32400000000,-0.24000,0.00
-6.32319950000,-0.24000,0.00
-6.32239950000,-0.23600,0.00
-6.32159950000,-0.23600,0.00
-6.32080000000,-0.23600,0.00
-6.31999950000,-0.23600,0.00
-6.31919950000,-0.24000,-0.04000
-6.31840000000,-0.24000,0.00
-6.31760000000,-0.24400,0.00
-6.31679950000,-0.24000,-0.04000
-6.31599950000,-0.23600,0.00
-6.31520000000,-0.24000,0.00
-6.31439950000,-0.24000,0.00
-6.31359950000,-0.24000,0.00
-6.31280000000,-0.24400,-0.04000
-6.31200000000,-0.24000,0.00
-6.31119950000,-0.24000,0.00
-6.31039950000,-0.24000,0.00
-6.30960000000,-0.24400,0.00
-6.30879950000,-0.24000,0.00
-6.30799950000,-0.24000,-0.04000
-6.30720000000,-0.24000,0.00
-6.30640000000,-0.24000,0.00
-6.30559950000,-0.23600,0.00
-6.30479950000,-0.24000,0.00
-6.30400000000,-0.24400,0.00
-6.30320000000,-0.24400,0.00
-6.30239950000,-0.24400,0.00
-6.30159950000,-0.24000,0.00
-6.30080000000,-0.23600,0.00
-6.29999950000,-0.23200,-0.04000
-6.29919950000,-0.24000,0.00
-6.29840000000,-0.23600,0.00
-6.29760000000,-0.24000,0.00
-6.29679950000,-0.23600,0.00
-6.29599950000,-0.24000,0.00
-6.29520000000,-0.24000,0.00
-6.29439950000,-0.23600,0.00
-6.29359950000,-0.24000,0.00
-6.29280000000,-0.24400,0.00
-6.29200000000,-0.24000,0.00
-6.29119950000,-0.24800,0.00
-6.29039950000,-0.24000,0.00
-6.28960000000,-0.24000,0.00
-6.28880000000,-0.24000,0.00
-6.28799950000,-0.24800,0.00
-6.28719950000,-0.24000,0.00
-6.28640000000,-0.24000,0.00
-6.28559950000,-0.24000,0.00
-6.28479950000,-0.24000,0.00
-6.28400000000,-0.24000,0.00
-6.28320000000,-0.24000,0.00
-6.28239950000,-0.23600,0.00
-6.28159950000,-0.23600,0.00
-6.28080000000,-0.23600,0.00
-6.27999950000,-0.23600,0.00
-6.27919950000,-0.24000,0.00
-6.27840000000,-0.24000,0.00
-6.27760000000,-0.24000,0.00
-6.27679950000,-0.24000,0.00
-6.27599950000,-0.24000,0.00
-6.27520000000,-0.24800,0.00
-6.27440000000,-0.24000,0.00
-6.27359950000,-0.23600,0.00
-6.27280000000,-0.23600,0.00
-6.27200000000,-0.24800,0.00
-6.27119950000,-0.24800,-0.04000
-6.27039950000,-0.24400,0.00
-6.26960000000,-0.24000,0.00
-6.26880000000,-0.24000,0.00
-6.26799950000,-0.24400,0.00
-6.26720000000,-0.24000,-0.04000
-6.26640000000,-0.24400,0.00
-6.26559950000,-0.24400,0.00
-6.26479950000,-0.24000,0.00
-6.26400000000,-0.24400,0.00
-6.26320000000,-0.24000,-0.04000
-6.26239950000,-0.23600,0.00
-6.26159950000,-0.24000,0.00
-6.26080000000,-0.23600,0.00
-6.26000000000,-0.24000,0.00
-6.25919950000,-0.24000,0.00
-6.25840000000,-0.23600,0.00
-6.25760000000,-0.24000,0.00
-6.25679950000,-0.23600,0.00
-6.25599950000,-0.24000,0.00
-6.25520000000,-0.23600,0.00
-6.25440000000,-0.24400,0.00
-6.25359950000,-0.24400,0.00
-6.25280000000,-0.23600,0.00
-6.25200000000,-0.24000,-0.04000
-6.25119950000,-0.24400,0.00
-6.25039950000,-0.24800,0.00
-6.24960000000,-0.24000,0.00
-6.24880000000,-0.24400,0.00
-6.24799950000,-0.24400,0.00
-6.24719950000,-0.24000,0.00
-6.24640000000,-0.24000,0.00
-6.24559950000,-0.24400,0.00
-6.24479950000,-0.24000,0.00
-6.24400000000,-0.23600,0.00
-6.24320000000,-0.24800,0.00
-6.24239950000,-0.24400,0.00
-6.24159950000,-0.24800,-0.04000
-6.24080000000,-0.24000,0.00
-6.24000000000,-0.24000,0.00
-6.23919950000,-0.24000,0.00
-6.23840000000,-0.24000,0.00
-6.23760000000,-0.24000,0.00
-6.23679950000,-0.24000,-0.04000
-6.23599950000,-0.23600,0.00
-6.23520000000,-0.23600,0.00
-6.23440000000,-0.22800,0.00
-6.23359950000,-0.24000,0.00
-6.23280000000,-0.24000,0.00
-6.23200000000,-0.24400,0.00
-6.23119950000,-0.24000,0.00
-6.23039950000,-0.24000,0.00
-6.22960000000,-0.24400,0.00
-6.22880000000,-0.24000,0.00
-6.22799950000,-0.24800,-0.04000
-6.22720000000,-0.24000,0.00
-6.22640000000,-0.24400,0.00
-6.22560000000,-0.23600,0.00
-6.22479950000,-0.24000,0.00
-6.22400000000,-0.24000,0.00
-6.22320000000,-0.23600,0.00
-6.22239950000,-0.23600,0.00
-6.22159950000,-0.23600,0.00
-6.22080000000,-0.23600,0.00
-6.22000000000,-0.23600,0.00
-6.21919950000,-0.24000,0.00
-6.21840000000,-0.24000,0.00
-6.21760000000,-0.24000,0.00
-6.21679950000,-0.24000,-0.04000
-6.21599950000,-0.23600,-0.04000
-6.21520000000,-0.24400,0.00
-6.21440000000,-0.24800,0.00
-6.21359950000,-0.23600,0.00
-6.21280000000,-0.24000,0.00
-6.21200000000,-0.24000,0.00
-6.21120000000,-0.24800,0.00
-6.21039950000,-0.24400,0.00
-6.20960000000,-0.24000,0.00
-6.20880000000,-0.24000,0.00
-6.20799950000,-0.23600,0.00
-6.20719950000,-0.23600,0.00
-6.20640000000,-0.24000,-0.04000
-6.20560000000,-0.24000,0.00
-6.20479950000,-0.24000,0.00
-6.20400000000,-0.24000,0.00
-6.20320000000,-0.23600,0.00
-6.20239950000,-0.24000,0.00
-6.20159950000,-0.23600,0.00
-6.20080000000,-0.23600,0.00
-6.20000000000,-0.23600,0.00
-6.19919950000,-0.23600,0.00
-6.19840000000,-0.24000,0.00
-6.19760000000,-0.24400,0.00
-6.19680000000,-0.24000,0.00
-6.19599950000,-0.22400,0.00
-6.19520000000,-0.24000,0.00
-6.19440000000,-0.24000,0.00
-6.19359950000,-0.24000,0.04000
-6.19280000000,-0.23600,0.00
-6.19200000000,-0.24000,0.00
-6.19120000000,-0.24800,0.00
-6.19039950000,-0.24000,0.00
-6.18960000000,-0.24400,0.00
-6.18880000000,-0.24400,0.00
-6.18799950000,-0.24000,0.00
-6.18720000000,-0.23600,0.00
-6.18640000000,-0.24000,0.00
-6.18560000000,-0.23600,0.00
-6.18479950000,-0.24400,0.00
-6.18400000000,-0.24000,0.00
-6.18320000000,-0.24000,0.00
-6.18239950000,-0.23600,0.00
-6.18159950000,-0.23600,0.00
-6.18080000000,-0.23600,0.00
-6.18000000000,-0.23600,0.00
-6.17919950000,-0.24400,0.00
-6.17840000000,-0.23600,0.00
-6.17760000000,-0.23600,0.00
-6.17680000000,-0.24000,0.00
-6.17599950000,-0.24000,0.00
-6.17520000000,-0.23600,0.00
-6.17440000000,-0.24000,0.00
-6.17359950000,-0.23600,0.00
-6.17280000000,-0.24800,0.00
-6.17200000000,-0.23600,0.00
-6.17120000000,-0.24000,0.00
-6.17039950000,-0.24800,0.00
-6.16960000000,-0.23600,0.00
-6.16880000000,-0.23600,0.04000
-6.16799950000,-0.24000,0.00
-6.16719950000,-0.24400,0.00
-6.16640000000,-0.24000,0.00
-6.16560000000,-0.24000,0.00
-6.16479950000,-0.24000,0.00
-6.16400000000,-0.24400,0.00
-6.16320000000,-0.23600,0.00
-6.16240000000,-0.23600,0.00
-6.16159950000,-0.24000,0.00
-6.16080000000,-0.23600,0.00
-6.16000000000,-0.24000,0.00
-6.15919950000,-0.23600,0.00
-6.15840000000,-0.24000,0.00
-6.15760000000,-0.24000,0.00
-6.15680000000,-0.24000,0.00
-6.15599950000,-0.24000,0.00
-6.15520000000,-0.24000,0.00
-6.15440000000,-0.24000,0.00
-6.15359950000,-0.24000,0.00
-6.15280000000,-0.23600,0.00
-6.15200000000,-0.24400,0.00
-6.15120000000,-0.23600,0.00
-6.15039950000,-0.24000,0.00
-6.14960000000,-0.24000,0.00
-6.14880000000,-0.23600,0.00
-6.14800000000,-0.24000,0.00
-6.14720000000,-0.24400,0.00
-6.14640000000,-0.24000,0.00
-6.14560000000,-0.23600,0.00
-6.14479950000,-0.23600,0.00
-6.14400000000,-0.24000,0.00
-6.14320000000,-0.24000,0.00
-6.14240000000,-0.24000,0.00
-6.14159950000,-0.23600,0.00
-6.14080000000,-0.23600,0.00
-6.14000000000,-0.23600,-0.04000
-6.13919950000,-0.24400,0.00
-6.13840000000,-0.24000,0.00
-6.13760000000,-0.24000,0.00
-6.13680000000,-0.23600,0.00
-6.13599950000,-0.24000,0.00
-6.13520000000,-0.24400,-0.04000
-6.13440000000,-0.24000,0.04000
-6.13360000000,-0.24000,0.00
-6.13280000000,-0.24000,0.00
-6.13200000000,-0.24000,0.00
-6.13120000000,-0.24800,0.00
-6.13039950000,-0.24000,-0.04000
-6.12960000000,-0.23600,0.04000
-6.12880000000,-0.24400,0.00
-6.12800000000,-0.24000,0.00
-6.12719950000,-0.24000,0.00
-6.12640000000,-0.23600,0.00
-6.12560000000,-0.23600,0.00
-6.12479950000,-0.23600,0.00
-6.12400000000,-0.23200,0.00
-6.12320000000,-0.24000,0.00
-6.12240000000,-0.24400,0.00
-6.12159950000,-0.24000,0.00
-6.12080000000,-0.23600,0.00
-6.12000000000,-0.23600,0.00
-6.11920000000,-0.23600,0.00
-6.11840000000,-0.24000,0.00
-6.11760000000,-0.24000,0.00
-6.11680000000,-0.24000,-0.04000
-6.11599950000,-0.24400,0.00
-6.11520000000,-0.24000,0.00
-6.11440000000,-0.24000,0.00
-6.11360000000,-0.23600,0.00
-6.11280000000,-0.23200,0.00
-6.11200000000,-0.24400,0.00
-6.11120000000,-0.24000,0.00
-6.11039950000,-0.23600,0.00
-6.10960000000,-0.24800,0.00
-6.10880000000,-0.24000,0.00
-6.10800000000,-0.23600,0.00
-6.10720000000,-0.24400,0.00
-6.10640000000,-0.24400,0.00
-6.10560000000,-0.24000,0.00
-6.10479950000,-0.24400,0.00
-6.10400000000,-0.23600,0.00
-6.10320000000,-0.24000,0.00
-6.10240000000,-0.24400,0.00
-6.10159950000,-0.23600,0.00
-6.10080000000,-0.23600,0.00
-6.10000000000,-0.23600,0.00
-6.09920000000,-0.24000,0.00
-6.09840000000,-0.24000,0.00
-6.09760000000,-0.23600,-0.04000
-6.09680000000,-0.23600,0.00
-6.09599950000,-0.24400,0.00
-6.09520000000,-0.23600,0.00
-6.09440000000,-0.24000,0.00
-6.09360000000,-0.24000,0.00
-6.09280000000,-0.24000,-0.04000
-6.09200000000,-0.24000,0.00
-6.09120000000,-0.24800,0.00
-6.09039950000,-0.24400,0.00
-6.08960000000,-0.24000,0.00
-6.08880000000,-0.24400,0.00
-6.08800000000,-0.23600,0.00
-6.08719950000,-0.24000,0.00
-6.08640000000,-0.24400,0.00
-6.08560000000,-0.24000,0.00
-6.08480000000,-0.24000,-0.04000
-6.08400000000,-0.24000,0.00
-6.08320000000,-0.23600,0.00
-6.08240000000,-0.24000,0.00
-6.08159950000,-0.23600,0.00
-6.08080000000,-0.23600,0.00
-6.08000000000,-0.24000,0.00
-6.07920000000,-0.24800,0.00
-6.07840000000,-0.24400,0.00
-6.07760000000,-0.23600,0.00
-6.07680000000,-0.23600,0.00
-6.07599950000,-0.23600,0.00
-6.07520000000,-0.24400,0.00
-6.07440000000,-0.24000,0.00
-6.07360000000,-0.23600,0.00
-6.07280000000,-0.23600,0.00
-6.07200000000,-0.23600,0.00
-6.07120000000,-0.24000,-0.04000
-6.07040000000,-0.23600,0.00
-6.06960000000,-0.24400,-0.04000
-6.06880000000,-0.24000,0.00
-6.06800000000,-0.23600,0.00
-6.06720000000,-0.24000,-0.04000
-6.06640000000,-0.24000,0.00
-6.06560000000,-0.24000,0.00
-6.06480000000,-0.24000,-0.04000
-6.06400000000,-0.23600,0.00
-6.06320000000,-0.24000,0.00
-6.06240000000,-0.24000,0.00
-6.06159950000,-0.23600,0.00
-6.06080000000,-0.23600,0.00
-6.06000000000,-0.24000,0.00
-6.05920000000,-0.24000,0.00
-6.05840000000,-0.24400,0.00
-6.05760000000,-0.24000,-0.04000
-6.05680000000,-0.24000,-0.04000
-6.05600000000,-0.24000,0.00
-6.05520000000,-0.24400,0.00
-6.05440000000,-0.24000,0.00
-6.05360000000,-0.24400,0.00
-6.05280000000,-0.24400,0.00
-6.05200000000,-0.23600,0.00
-6.05120000000,-0.23600,0.00
-6.05040000000,-0.23600,0.00
-6.04960000000,-0.23600,0.00
-6.04880000000,-0.23600,0.00
-6.04800000000,-0.23600,0.00
-6.04719950000,-0.24000,0.00
-6.04640000000,-0.23600,0.00
-6.04560000000,-0.24000,-0.04000
-6.04480000000,-0.23600,0.00
-6.04400000000,-0.24000,0.00
-6.04320000000,-0.24000,0.00
-6.04240000000,-0.23600,0.00
-6.04160000000,-0.24000,0.00
-6.04080000000,-0.23600,0.00
-6.04000000000,-0.24000,0.00
-6.03920000000,-0.23600,0.00
-6.03840000000,-0.24000,0.00
-6.03760000000,-0.23600,0.00
-6.03680000000,-0.24000,0.00
-6.03600000000,-0.24000,0.00
-6.03520000000,-0.24000,0.00
-6.03440000000,-0.24000,0.00
-6.03360000000,-0.24000,0.00
-6.03280000000,-0.24000,0.04000
-6.03200000000,-0.24400,0.00
-6.03120000000,-0.24800,0.00
-6.03040000000,-0.24000,0.00
-6.02960000000,-0.24400,0.00
-6.02880000000,-0.24400,0.00
-6.02800000000,-0.24000,0.00
-6.02720000000,-0.23600,0.00
-6.02640000000,-0.24000,0.00
-6.02560000000,-0.24000,0.00
-6.02480000000,-0.23600,0.00
-6.02400000000,-0.23600,0.00
-6.02320000000,-0.24000,0.00
-6.02240000000,-0.24000,0.00
-6.02160000000,-0.24000,-0.04000
-6.02080000000,-0.23600,0.00
-6.02000000000,-0.24000,0.00
-6.01920000000,-0.23600,0.00
